…
With respect to the distribution of the observed $M$ values themselves,
these can be further extracted using
[`SimResults()`](http://philchalmers.github.io/SimDesign/reference/SimResults.md).
Notice that when plotted, the rejection magnitudes are not normally
distributed, which is to be expected given the nature of the conditional
simulation experiment.

``` r
results <- SimResults(typeM)
results
```

    ## # A tibble: 10,000 × 5
    ##        n  mean sig.level retain     M
    ##    <dbl> <dbl>     <dbl> <lgl>  <dbl>
    ##  1    50   0.2      0.05 TRUE    2.47
    ##  2    50   0.2      0.05 TRUE    2.44
    ##  3    50   0.2      0.05 TRUE    2.57
    ##  4    50   0.2      0.05 TRUE    2.52
    ##  5    50   0.2      0.05 TRUE    2.16
    ##  6    50   0.2      0.05 FALSE   3.59
    ##  7    50   0.2      0.05 TRUE    1.78
    ##  8    50   0.2      0.05 TRUE    2.21
    ##  9    50   0.2      0.05 TRUE    2.79
    ## 10    50   0.2      0.05 FALSE   3.38
    ## # ℹ 9,990 more rows
…
    ## [1] 0.0088

so approximately 1% of the significant results would have been due to an
overly large effect size estimate. Again, the distributional properties
of the observed $M$ values can be extracted and further analyzed should
the need arise.

``` r
results <- SimResults(typeM2)
results
```

    ## # A tibble: 10,000 × 5
    ##        n  mean sig.level retain     M
    ##    <dbl> <dbl>     <dbl> <lgl>  <dbl>
    ##  1   100   0.2      0.05 TRUE    1.43
    ##  2   100   0.2      0.05 TRUE    1.45
    ##  3   100   0.2      0.05 TRUE    1.83
    ##  4   100   0.2      0.05 TRUE    1.72
    ##  5   100   0.2      0.05 TRUE    1.98
    ##  6   100   0.2      0.05 TRUE    1.61
    ##  7   100   0.2      0.05 TRUE    2.01
    ##  8   100   0.2      0.05 TRUE    2.52
    ##  9   100   0.2      0.05 TRUE    1.48
    ## 10   100   0.2      0.05 TRUE    1.49
    ## # ℹ 9,990 more rows
…
