…
To view the complete simulation results use
[`SimResults()`](http://philchalmers.github.io/SimDesign/reference/SimResults.md)
on the resulting output, which if useful could be further plotted. Note
that when plotting Bayes factors it is advantageous to present the plot
in natural log units.

``` r
BFresults <- SimResults(BFsim)
BFresults
```

    ## # A tibble: 10,000 × 6
    ##        n  mean    mu sig.level largeBF      bf
    ##    <dbl> <dbl> <dbl>     <dbl> <lgl>     <dbl>
    ##  1   100   0.5   0.3      0.05 FALSE     0.131
    ##  2   100   0.5   0.3      0.05 FALSE     1.04 
    ##  3   100   0.5   0.3      0.05 FALSE     2.73 
    ##  4   100   0.5   0.3      0.05 TRUE     43.4  
    ##  5   100   0.5   0.3      0.05 FALSE     0.168
    ##  6   100   0.5   0.3      0.05 FALSE     1.06 
    ##  7   100   0.5   0.3      0.05 TRUE      3.73 
    ##  8   100   0.5   0.3      0.05 TRUE    442.   
    ##  9   100   0.5   0.3      0.05 TRUE     11.3  
    ## 10   100   0.5   0.3      0.05 TRUE      4.11 
    ## # ℹ 9,990 more rows
…
